{
  "chromeos-amd64-generic-cfi-thin-lto-rel": {
    "args_file": "//build/args/chromeos/amd64-generic.gni",
    "gn_args": {
      "dcheck_always_on": false,
      "is_cfi": true,
      "is_chromeos_device": true,
      "ozone_platform_headless": true,
      "use_cfi_cast": true,
      "use_goma": true,
      "use_thin_lto": true
    }
  },
  "chromeos-amd64-generic-dbg": {
    "args_file": "//build/args/chromeos/amd64-generic.gni",
    "gn_args": {
      "dcheck_always_on": false,
      "is_chromeos_device": true,
      "is_debug": true,
      "ozone_platform_headless": true,
      "use_goma": true
    }
  },
  "chromeos-amd64-generic-rel": {
    "args_file": "//build/args/chromeos/amd64-generic-vm.gni",
    "gn_args": {
      "dcheck_always_on": true,
      "is_chromeos_device": true,
      "ozone_platform_headless": true,
      "use_goma": true,
      "use_real_dbus_clients": false
    }
  },
  "chromeos-amd64-generic-rel-rts": {
    "args_file": "//build/args/chromeos/amd64-generic.gni",
    "gn_args": {
      "dcheck_always_on": false,
      "is_chromeos_device": true,
      "ozone_platform_headless": true,
      "use_goma": true,
      "use_real_dbus_clients": false
    }
  },
  "chromeos-arm-generic-dbg": {
    "args_file": "//build/args/chromeos/arm-generic.gni",
    "gn_args": {
      "dcheck_always_on": false,
      "is_chromeos_device": true,
      "is_debug": true,
      "ozone_platform_headless": true,
      "use_goma": true
    }
  },
  "chromeos-arm-generic-rel": {
    "args_file": "//build/args/chromeos/arm-generic.gni",
    "gn_args": {
      "dcheck_always_on": true,
      "is_chromeos_device": true,
      "ozone_platform_headless": true,
      "use_goma": true
    }
  },
  "chromeos-kevin-compile-rel": {
    "args_file": "//build/args/chromeos/kevin.gni",
    "gn_args": {
      "dcheck_always_on": false,
      "is_chromeos_device": true,
      "ozone_platform_headless": true,
      "use_goma": true
    }
  },
  "chromeos-kevin-rel": {
    "args_file": "//build/args/chromeos/kevin.gni",
    "gn_args": {
      "dcheck_always_on": false,
      "is_chromeos_device": true,
      "ozone_platform_headless": true,
      "use_goma": true
    }
  },
  "gpu-fyi-try-chromeos-amd64-generic": {
    "args_file": "//build/args/chromeos/amd64-generic-vm.gni",
    "gn_args": {
      "blink_enable_generated_code_formatting": false,
      "dcheck_always_on": false,
      "ffmpeg_branding": "Chrome",
      "is_chromeos_device": true,
      "is_component_build": false,
      "is_debug": false,
      "ozone_platform_headless": true,
      "proprietary_codecs": true,
      "symbol_level": 0,
      "use_goma": true
    }
  },
  "gpu-fyi-try-chromeos-kevin": {
    "args_file": "//build/args/chromeos/kevin.gni",
    "gn_args": {
      "blink_enable_generated_code_formatting": false,
      "dcheck_always_on": false,
      "ffmpeg_branding": "Chrome",
      "is_chromeos_device": true,
      "is_component_build": false,
      "is_debug": false,
      "ozone_platform_headless": true,
      "proprietary_codecs": true,
      "symbol_level": 0,
      "use_goma": true
    }
  },
  "lacros-amd64-generic-rel": {
    "args_file": "//build/args/chromeos/amd64-generic-crostoolchain.gni",
    "gn_args": {
      "chromeos_is_browser_only": true,
      "cros_host_sysroot": "//build/linux/debian_sid_amd64-sysroot",
      "cros_v8_snapshot_sysroot": "//build/linux/debian_sid_amd64-sysroot",
      "dcheck_always_on": true,
      "is_chromeos_device": true,
      "is_debug": false,
      "ozone_platform_headless": true,
      "target_os": "chromeos",
      "use_goma": true
    }
  },
  "lacros-arm-generic-rel": {
    "args_file": "//build/args/chromeos/arm-generic-crostoolchain.gni",
    "gn_args": {
      "chromeos_is_browser_only": true,
      "cros_host_sysroot": "//build/linux/debian_sid_amd64-sysroot",
      "cros_v8_snapshot_sysroot": "//build/linux/debian_sid_i386-sysroot",
      "dcheck_always_on": true,
      "is_chromeos_device": true,
      "is_debug": false,
      "ozone_platform_headless": true,
      "target_os": "chromeos",
      "use_goma": true
    }
  },
  "linux-cfm-rel": {
    "gn_args": {
      "blink_enable_generated_code_formatting": false,
      "dcheck_always_on": true,
      "is_cfm": true,
      "is_component_build": false,
      "is_debug": false,
      "symbol_level": 0,
      "target_os": "chromeos",
      "use_goma": true
    }
  },
  "linux-chromeos-compile-dbg": {
    "gn_args": {
      "ffmpeg_branding": "ChromeOS",
      "is_component_build": true,
      "is_debug": true,
      "proprietary_codecs": true,
      "symbol_level": 1,
      "target_os": "chromeos",
      "use_goma": true
    }
  },
  "linux-chromeos-dbg": {
    "gn_args": {
      "ffmpeg_branding": "ChromeOS",
      "is_component_build": true,
      "is_debug": true,
      "proprietary_codecs": true,
      "symbol_level": 1,
      "target_os": "chromeos",
      "use_goma": true
    }
  },
  "linux-chromeos-inverse-fieldtrials-fyi-rel": {
    "gn_args": {
      "blink_enable_generated_code_formatting": false,
      "dcheck_always_on": true,
      "ffmpeg_branding": "ChromeOS",
      "invert_fieldtrials": true,
      "is_component_build": false,
      "is_debug": false,
      "proprietary_codecs": true,
      "symbol_level": 0,
      "target_os": "chromeos",
      "use_goma": true
    }
  },
  "linux-chromeos-js-code-coverage": {
    "gn_args": {
      "blink_enable_generated_code_formatting": false,
      "coverage_instrumentation_input_file": "//.code-coverage/files_to_instrument.txt",
      "dcheck_always_on": true,
      "ffmpeg_branding": "ChromeOS",
      "is_component_build": false,
      "is_debug": false,
      "optimize_webui": false,
      "proprietary_codecs": true,
      "symbol_level": 0,
      "target_os": "chromeos",
      "use_clang_coverage": true,
      "use_goma": true,
      "use_javascript_coverage": true
    }
  },
  "linux-chromeos-rel": {
    "gn_args": {
      "blink_enable_generated_code_formatting": false,
      "coverage_instrumentation_input_file": "//.code-coverage/files_to_instrument.txt",
      "dcheck_always_on": true,
      "ffmpeg_branding": "ChromeOS",
      "is_component_build": false,
      "is_debug": false,
      "proprietary_codecs": true,
      "symbol_level": 0,
      "target_os": "chromeos",
      "use_clang_coverage": true,
      "use_goma": true
    }
  },
  "linux-lacros-dbg": {
    "gn_args": {
      "also_build_ash_chrome": true,
      "chromeos_is_browser_only": true,
      "is_component_build": true,
      "is_debug": true,
      "symbol_level": 1,
      "target_os": "chromeos",
      "use_goma": true
    }
  },
  "linux-lacros-rel": {
    "gn_args": {
      "also_build_ash_chrome": true,
      "blink_enable_generated_code_formatting": false,
      "chromeos_is_browser_only": true,
      "dcheck_always_on": true,
      "is_component_build": false,
      "is_debug": false,
      "symbol_level": 0,
      "target_os": "chromeos",
      "use_goma": true
    }
  },
  "linux-lacros-rel-rts": {
    "gn_args": {
      "also_build_ash_chrome": true,
      "blink_enable_generated_code_formatting": false,
      "chromeos_is_browser_only": true,
      "dcheck_always_on": true,
      "is_component_build": false,
      "is_debug": false,
      "symbol_level": 0,
      "target_os": "chromeos",
      "use_goma": true
    }
  }
}